module gitlab.com/jzacsh/runonchange

go 1.16

require (
	github.com/fatih/color v1.5.1-0.20170523202404-62e9147c64a1
	github.com/fsnotify/fsnotify v1.4.3-0.20170329110642-4da3e2cfbabc
	github.com/mattn/go-colorable v0.0.9-0.20170710101742-165c32261890 // indirect
	github.com/mattn/go-isatty v0.0.2 // indirect
	golang.org/x/sys v0.0.0-20170529185110-b90f89a1e7a9 // indirect
)
